
0: kHyperDbg> dq rdx
fffff806`27f885c0  00000000`00000038 FFFFF806`27F88610
fffff806`27f885d0  FFFFF806`21633480 00000000`00000000
fffff806`27f885e0  00000000`30000000 FFFFF806`21EF8500
fffff806`27f885f0  00000000`00000000 FFFFF806`21C9C10C
fffff806`27f88600  00000000`00380038 FFFFF806`27F88610
fffff806`27f88610  00000000`00003152 00007FFF`00000000
fffff806`27f88620  21633480`C0000082 000000B2`FFFFF806
fffff806`27f88630  00000000`00000000 00000000`00000000



!msrread c0000082 script {

	//
	// Fill the EDX:EAX
	//
	@rdx = f0f0f0f0;
	@rax = 10203040;
	
	event_sc(1);
	
	printf("%llx is read!\n", @rcx);

}
